HigherGov API

**Document: 2 of 3**

URL: https://www.highergov.com/api-external/docs/#/Vehicle/api_external_vehicle_list

---


HigherGov API
v1.2 
OAS 3.0
/api-external/schema/


---


GET
/api-external/idv/

Description: Federal prime IDV awards.
Update Frequency: Daily by 2am (for two days prior) Update Check Field: last_modified_date.

Parameters
Try it out
Name	Description
api_key *
string
(query)
API Key for authentication

Default value : your-api-key-here

your-api-key-here
award_id
string
(query)
The government Award ID

Examples: 
Select
award_id
awardee_key
integer
(query)
HigherGov Awardee Key

Examples: 
Select
awardee_key
awardee_key_parent
integer
(query)
HigherGov Awardee Key (Parent Level)

Examples: 
Select
awardee_key_parent
awardee_uei
string
(query)
Awardee UEI

Examples: 
Select
awardee_uei
awardee_uei_parent
string
(query)
Awardee UEI Parent

Examples: 
Select
awardee_uei_parent
awarding_agency_key
integer
(query)
HigherGov Awarding Agency key

Examples: 
Select
awarding_agency_key
funding_agency_key
integer
(query)
HigherGov Funding Agency key

Examples: 
Select
funding_agency_key
last_modified_date
string($date)
(query)
Last modified date filter (format: YYYY-MM-DD)

Examples: 
Select
last_modified_date
naics_code
string
(query)
Awards NAICS code

Examples: 
Select
naics_code
ordering
string
(query)
Which field to use when ordering the results.

Available values : -action_date, -last_modified_date_ordering, -ordering_period_end_date, -potential_total_value_of_award, action_date, last_modified_date_ordering, ordering_period_end_date, potential_total_value_of_award


--
page_number
integer
(query)
A page number within the paginated result set.

page_number
page_size
string
(query)
Number of records returned per page (max 100)

Default value : 10

10
parent_award_id
string
(query)
The government Award ID of the parent Award

Examples: 
Select
parent_award_id
psc_code
string
(query)
PSC code

Examples: 
Select
psc_code
vehicle_key
integer
(query)
HigherGov Vehicle key

Examples: 
Select
vehicle_key
Responses
Code	Description	Links
200	
Success

Media type

application/json
Controls Accept header.
Example Value
Schema
{
  "results": [
    {
      "award_id": "string",
      "parent_award_id": "string",
      "latest_transaction_key": "string",
      "last_modified_date": "2025-08-04T21:39:54.357Z",
      "latest_action_date": "2025-08-04",
      "latest_action_date_fiscal_year": 0,
      "awardee_key": {
        "awardee_key": 0,
        "clean_name": "string",
        "uei": "string",
        "cage_code": "string",
        "path": "string"
      },
      "awardee_key_parent": {
        "awardee_key": 0,
        "clean_name": "string",
        "uei": "string",
        "cage_code": "string",
        "path": "string"
      },
      "awarding_agency": {
        "agency_key": 0,
        "agency_name": "string",
        "agency_abbreviation": "string",
        "agency_type": "string",
        "path": "string"
      },
      "funding_agency": {
        "agency_key": 0,
        "agency_name": "string",
        "agency_abbreviation": "string",
        "agency_type": "string",
        "path": "string"
      },
      "vehicle": {
        "vehicle_key": 0,
        "vehicle_name": "string",
        "vehicle_description": "string",
        "path": "string"
      },
      "who_can_use": "string",
      "federal_supply_schedule_award_id": "string",
      "parent_award_type": "string",
      "period_of_performance_start_date": "2025-08-04T21:39:54.357Z",
      "ordering_period_end_date": "2025-08-04T21:39:54.357Z",
      "potential_total_value_of_award": 0,
      "award_type": "string",
      "award_description_original": "string",
      "alt_description": "string",
      "solicitation_identifier": "string",
      "related_opportunity_title": "string",
      "psc_code": {
        "psc_code": "string",
        "psc_name": "string",
        "psc_description": "string",
        "active": true,
        "path": "string"
      },
      "naics_code": {
        "naics_code": "string",
        "naics_description": "string",
        "active": true,
        "path": "string"
      },
      "type_of_agreement": "string",
      "type_of_contract_pricing_description": "string",
      "national_interest_action": "string",
      "defense_program": "string",
      "other_statutory_authority": "string",
      "dod_claimant_program_code": "string",
      "subcontracting_plan": "string",
      "contracting_officers_determination_of_business_size_code": "string",
      "cost_or_pricing_data": "string",
      "competitive_procedures": "string",
      "fair_opportunity_limited_sources": "string",
      "other_than_full_and_open_competition": "string",
      "clinger_cohen_act_planning": "string",
      "research": "string",
      "type_of_set_aside": "string",
      "number_of_offers_received": "string",
      "extent_competed": "string",
      "solicitation_procedures": "string",
      "evaluated_preference": "string",
      "status_code": "string",
      "closed_status": "string",
      "created_by": {
        "contact_title": "string",
        "contact_name": "string",
        "contact_first_name": "string",
        "contact_last_name": "string",
        "contact_email": "string",
        "contact_phone": "string"
      },
      "last_modified_by": {
        "contact_title": "string",
        "contact_name": "string",
        "contact_first_name": "string",
        "contact_last_name": "string",
        "contact_email": "string",
        "contact_phone": "string"
      },
      "approved_by": {
        "contact_title": "string",
        "contact_name": "string",
        "contact_first_name": "string",
        "contact_last_name": "string",
        "contact_email": "string",
        "contact_phone": "string"
      },
      "path": "string"
    }
  ],
  "meta": {
    "pagination": {
      "page": 1,
      "pages": 999,
      "count": 9999
    }
  },
  "links": {
    "first": "https://www.highergov.com/api/federal idv/?...page_number=1",
    "last": "https://www.highergov.com/api/federal idv/?...page_number=999",
    "next": "https://www.highergov.com/api/federal idv/?...page_number=2",
    "prev": null
  }
}
No links
400	
Bad Request

No links
403	
Invalid API Key

No links
404	
Requested Record Not Found

No links
NAICS


GET
/api-external/naics/

Description: North American Industry Classification System (NAICS) codes.
Update Frequency: Updated Ad Hoc when codes added or removed by the Census Bureau or the SBA changes size standards

Parameters
Try it out
Name	Description
api_key *
string
(query)
API Key for authentication

Default value : your-api-key-here

your-api-key-here
naics_code
string
(query)
Awards NAICS code

Examples: 
Select
naics_code
ordering
string
(query)
Which field to use when ordering the results.

Available values : -naics_code, naics_code


--
page_number
integer
(query)
A page number within the paginated result set.

page_number
page_size
string
(query)
Number of records returned per page (max 100)

Default value : 10

10
Responses
Code	Description	Links
200	
Success

Media type

application/json
Controls Accept header.
Example Value
Schema
{
  "results": [
    {
      "naics_code": "string",
      "naics_description": "string",
      "naics_description_long": "string",
      "active": true,
      "path": "string"
    }
  ],
  "meta": {
    "pagination": {
      "page": 1,
      "pages": 999,
      "count": 9999
    }
  },
  "links": {
    "first": "https://www.highergov.com/api/naics/?...page_number=1",
    "last": "https://www.highergov.com/api/naics/?...page_number=999",
    "next": "https://www.highergov.com/api/naics/?...page_number=2",
    "prev": null
  }
}
No links
400	
Bad Request

No links
403	
Invalid API Key

No links
404	
Requested Record Not Found

No links
NSN


GET
/api-external/nsn/

Description: NATO Stock Number Lookup.

Parameters
Try it out
Name	Description
api_key *
string
(query)
API Key for authentication

Default value : your-api-key-here

your-api-key-here
cage_code
string
(query)
Supplier CAGE

Examples: 
Select
cage_code
nsn
string
(query)
National Stock Number (NSN)

Examples: 
Select
nsn
ordering
string
(query)
Which field to use when ordering the results.

Available values : -last_price, -opp_count, -unit_price, last_price, opp_count, unit_price


--
page_number
integer
(query)
A page number within the paginated result set.

page_number
page_size
string
(query)
Number of records returned per page (max 100)

Default value : 10

10
Responses
Code	Description	Links
200	
Success

Media type

application/json
Controls Accept header.
Example Value
Schema
{
  "results": [
    {
      "nsn": "string",
      "niin": "string",
      "fsc": "string",
      "nomenclature": "string",
      "opp_count": 9223372036854776000,
      "part_numbers": "string",
      "end_item_name": "string",
      "amc": "string",
      "amsc": "string",
      "ui": "string",
      "distributor_use": true,
      "last_price": "string",
      "unit_price": "string",
      "suppliers": "string",
      "awards": "string"
    }
  ],
  "meta": {
    "pagination": {
      "page": 1,
      "pages": 999,
      "count": 9999
    }
  },
  "links": {
    "first": "https://www.highergov.com/api/nsn/?...page_number=1",
    "last": "https://www.highergov.com/api/nsn/?...page_number=999",
    "next": "https://www.highergov.com/api/nsn/?...page_number=2",
    "prev": null
  }
}
No links
400	
Bad Request

No links
403	
Invalid API Key

No links
404	
Requested Record Not Found

No links
Opportunity


GET
/api-external/opportunity/

Description: Includes federal Contract, DIBBS, Grants, and State and Local Opportunities.
Update Frequency: Updated every 30 minutes Update Check Field: captured_date.

Parameters
Try it out
Name	Description
agency_key
integer
(query)
HigherGov Agency key

Examples: 
Select
agency_key
api_key *
string
(query)
API Key for authentication

Default value : your-api-key-here

your-api-key-here
captured_date
string($date)
(query)
Date the opportunity was added to HigherGov

Examples: 
Select
captured_date
opp_key
string
(query)
The HigherGov opportunity key

Examples: 
Select
opp_key
ordering
string
(query)
Which field to use when ordering the results.

Available values : -captured_date, -due_date, -posted_date, captured_date, due_date, posted_date


--
page_number
integer
(query)
A page number within the paginated result set.

page_number
page_size
string
(query)
Number of records returned per page (max 100)

Default value : 10

10
posted_date
string($date)
(query)
Date the opportunity was posted by the agency in YYYY-MM-DD format

Examples: 
Select
posted_date
search_id
string
(query)
HigherGov SearchID. The following search search fields are currently supported: Active, Applicant Type (Grant Only), Agency, CAGE Code, Date Due, Date Posted, Funding Category (Grant Only), Funding Instrument (Grant Only), Grant Program, Keywords, NAICS, NSN, Place of Performance (Federal Contracts Only), PSC, Set Aside, State (State and Local Only), and Value Range

Examples: 
Select
search_id
source_id
string
(query)
The source opportunity ID

Examples: 
Select
source_id
source_type
string
(query)
Opportunity source type (sam, dibbs, sbir, grant, sled)

Examples: 
Select
source_type
version_key
string
(query)
The HigherGov opportunity version key

Examples: 
Select
version_key
Responses
Code	Description	Links
200	
Success

Media type

application/json
Controls Accept header.
Example Value
Schema
{
  "results": [
    {
      "opp_cat": "string",
      "title": "string",
      "description_text": "string",
      "ai_summary": "string",
      "source_id": "string",
      "source_id_version": "string",
      "captured_date": "2025-08-04",
      "posted_date": "2025-08-04",
      "due_date": "2025-08-04",
      "agency": {
        "agency_key": 0,
        "agency_name": "string",
        "agency_abbreviation": "string",
        "agency_type": "string",
        "path": "string"
      },
      "naics_code": {
        "naics_code": "string"
      },
      "psc_code": {
        "psc_code": "string"
      },
      "opp_type": {
        "description": "string"
      },
      "primary_contact_email": {
        "contact_title": "string",
        "contact_name": "string",
        "contact_first_name": "string",
        "contact_last_name": "string",
        "contact_email": "string",
        "contact_phone": "string"
      },
      "secondary_contact_email": {
        "contact_title": "string",
        "contact_name": "string",
        "contact_first_name": "string",
        "contact_last_name": "string",
        "contact_email": "string",
        "contact_phone": "string"
      },
      "set_aside": "string",
      "nsn": [
        "string"
      ],
      "val_est_low": "string",
      "val_est_high": "string",
      "pop_country": "string",
      "pop_state": "string",
      "pop_city": "string",
      "pop_zip": "string",
      "opp_key": "string",
      "version_key": "string",
      "source_type": "string",
      "dibbs_status": "string",
      "path": "string",
      "source_path": "string",
      "document_path": "string"
    }
  ],
  "meta": {
    "pagination": {
      "page": 1,
      "pages": 999,
      "count": 9999
    }
  },
  "links": {
    "first": "https://www.highergov.com/api/opportunity/?...page_number=1",
    "last": "https://www.highergov.com/api/opportunity/?...page_number=999",
    "next": "https://www.highergov.com/api/opportunity/?...page_number=2",
    "prev": null
  }
}
No links
400	
Bad Request

No links
403	
Invalid API Key

No links
404	
Requested Record Not Found

No links
People


GET
/api-external/people/

Description: Federal and State and Local People.
Update Frequency: Updated in real time. Update Check Field: as_of_date.

Parameters
Try it out
Name	Description
api_key *
string
(query)
API Key for authentication

Default value : your-api-key-here

your-api-key-here
contact_email
string
(query)
Email address

Examples: 
Select
contact_email
ordering
string
(query)
Which field to use when ordering the results.

Available values : -last_seen, last_seen


--
page_number
integer
(query)
A page number within the paginated result set.

page_number
page_size
string
(query)
Number of records returned per page (max 100)

Default value : 10

10
Responses
Code	Description	Links
200	
Success

Media type

application/json
Controls Accept header.
Example Value
Schema
{
  "results": [
    {
      "last_seen": "2025-08-04",
      "contact_first_name": "string",
      "contact_last_name": "string",
      "contact_name": "string",
      "contact_title": "string",
      "contact_email": "string",
      "contact_phone": "string",
      "contact_ext": "string",
      "contact_fax": "string",
      "agency": {
        "agency_key": 0,
        "agency_name": "string",
        "agency_abbreviation": "string",
        "agency_type": "string",
        "path": "string"
      },
      "contact_type": "string",
      "path": "string"
    }
  ],
  "meta": {
    "pagination": {
      "page": 1,
      "pages": 999,
      "count": 9999
    }
  },
  "links": {
    "first": "https://www.highergov.com/api/people/?...page_number=1",
    "last": "https://www.highergov.com/api/people/?...page_number=999",
    "next": "https://www.highergov.com/api/people/?...page_number=2",
    "prev": null
  }
}
No links
400	
Bad Request

No links
403	
Invalid API Key

No links
404	
Requested Record Not Found

No links
PSC


GET
/api-external/psc/

Description: Product Service Codes (PSC) Codes.
Update Frequency: Updated Ad Hoc when codes added or removed

Parameters
Try it out
Name	Description
api_key *
string
(query)
API Key for authentication

Default value : your-api-key-here

your-api-key-here
page_number
integer
(query)
A page number within the paginated result set.

page_number
page_size
string
(query)
Number of records returned per page (max 100)

Default value : 10

10
psc_code
string
(query)
PSC code

Examples: 
Select
psc_code
Responses
Code	Description	Links
200	
Success

Media type

application/json
Controls Accept header.
Example Value
Schema
{
  "results": [
    {
      "psc_code": "string",
      "psc_name": "string",
      "psc_description": "string",
      "active": true,
      "path": "string"
    }
  ],
  "meta": {
    "pagination": {
      "page": 1,
      "pages": 999,
      "count": 9999
    }
  },
  "links": {
    "first": "https://www.highergov.com/api/psc/?...page_number=1",
    "last": "https://www.highergov.com/api/psc/?...page_number=999",
    "next": "https://www.highergov.com/api/psc/?...page_number=2",
    "prev": null
  }
}
No links
400	
Bad Request

No links
403	
Invalid API Key

No links
404	
Requested Record Not Found

No links
Federal Subcontract


