HigherGov API

**Document: 1 of 3**

URL: https://www.highergov.com/api-external/docs/#/Vehicle/api_external_vehicle_list

---


HigherGov API
v1.2 
OAS 3.0
/api-external/schema/


---


Overview
The HigherGov API provides access to comprehensive Federal and State and Local opportunity, contract and grant award, awardee, people, and other reference data. The documentation below allows you to create sample calls without an API key by selecting the Try It Out button under each endpoint, selecting your desired Parameters, and pressing Execute. Code snippets and other details are available in the help guide.

Access
To generate an API Key, select the gear icon in the upper right hand page of your HigherGov account when logged-in and select the API option. Only account admins can create API keys.

Support
For questions and requests, please email us at contact@highergov.com.


Update Frequency
See each endpoint for a description of update frequency and timing.


Usage Limits
All subscriptions include base usage of 10,000 records per month. If your needs exceed this number of records, please contact us with your use case and expected number of records.

Agency


GET
/api-external/agency/

Description:Federal and State and Local Agencies and hierarchies.
Update Frequency: Ad Hoc as new agencies are created or become relevant.

Parameters
Try it out
Name	Description
agency_key
integer
(query)
HigherGov Agency key

Examples: 
Select
agency_key
api_key *
string
(query)
API Key for authentication

Default value : your-api-key-here

your-api-key-here
page_number
integer
(query)
A page number within the paginated result set.

page_number
page_size
string
(query)
Number of records returned per page (max 100)

Default value : 10

10
Responses
Code	Description	Links
200	
Success

Media type

application/json
Controls Accept header.
Example Value
Schema
{
  "results": [
    {
      "agency_key": 0,
      "agency_name": "string",
      "agency_abbreviation": "string",
      "agency_type": "string",
      "defense_flag": true,
      "level_1": "string",
      "level_2": "string",
      "level_3": "string",
      "level_4": "string",
      "level_5": "string",
      "level_6": "string",
      "level_7": "string",
      "path": "string"
    }
  ],
  "meta": {
    "pagination": {
      "page": 1,
      "pages": 999,
      "count": 9999
    }
  },
  "links": {
    "first": "https://www.highergov.com/api/agency/?...page_number=1",
    "last": "https://www.highergov.com/api/agency/?...page_number=999",
    "next": "https://www.highergov.com/api/agency/?...page_number=2",
    "prev": null
  }
}
No links
400	
Bad Request

No links
403	
Invalid API Key

No links
404	
Requested Record Not Found

No links
Awardee


GET
/api-external/awardee/

Description: Federal Awardees registered in SAM and DSBS.
Update Frequency: Updated Monthly.
Update Check Field: registration_last_update_date

Parameters
Try it out
Name	Description
api_key *
string
(query)
API Key for authentication

Default value : your-api-key-here

your-api-key-here
awardee_key_parent
integer
(query)
HigherGov Awardee Key (Parent Level)

Examples: 
Select
awardee_key_parent
cage_code
string
(query)
CAGE Code

Examples: 
Select
cage_code
ordering
string
(query)
Which field to use when ordering the results.

Available values : -last_update_date, last_update_date


--
page_number
integer
(query)
A page number within the paginated result set.

page_number
page_size
string
(query)
Number of records returned per page (max 100)

Default value : 10

10
primary_naics
string
(query)
Primary registered NAICS Code

Examples: 
Select
primary_naics
registration_last_update_date
string($date)
(query)
The date the awardee last updated their registration in SAM

Examples: 
Select
registration_last_update_date
uei
string
(query)
UEI

Examples: 
Select
uei
Responses
Code	Description	Links
200	
Success

Media type

application/json
Controls Accept header.
Example Value
Schema
{
  "results": [
    {
      "awardee_key": 0,
      "awardee_key_parent": {
        "awardee_key": 0,
        "clean_name": "string",
        "uei": "string",
        "cage_code": "string",
        "path": "string"
      },
      "parent_flag": true,
      "clean_name": "string",
      "legal_business_name": "string",
      "dba_name": "string",
      "entity_division_name": "string",
      "entity_division_number": "string",
      "uei": "string",
      "cage_code": "string",
      "purpose_of_registration": "string",
      "initial_registration_date": "2025-08-04",
      "registration_expiration_date": "2025-08-04",
      "registration_last_update_date": "2025-08-04",
      "registration_activation_date": "2025-08-04",
      "year_founded": "string",
      "employee_count": "string",
      "physical_address_line_1": "string",
      "physical_address_line_2": "string",
      "physical_address_city": "string",
      "physical_address_province_or_state": "string",
      "physical_address_zip_postal_code": "string",
      "physical_address_zip_code_4": "string",
      "physical_address_country_code": "string",
      "govt_bus_poc_first_name": "string",
      "govt_bus_poc_last_name": "string",
      "govt_bus_poc_title": "string",
      "govt_bus_poc_st_add_1": "string",
      "govt_bus_poc_st_add_2": "string",
      "govt_bus_poc_city": "string",
      "govt_bus_poc_zip_postal_code": "string",
      "govt_bus_state_or_province": "string",
      "govt_bus_poc_country_code": "string",
      "website": "string",
      "primary_naics": {
        "naics_code": "string"
      },
      "naics_codes": "string",
      "psc_codes": "string",
      "bus_type_info": "string",
      "path": "string"
    }
  ],
  "meta": {
    "pagination": {
      "page": 1,
      "pages": 999,
      "count": 9999
    }
  },
  "links": {
    "first": "https://www.highergov.com/api/awardee/?...page_number=1",
    "last": "https://www.highergov.com/api/awardee/?...page_number=999",
    "next": "https://www.highergov.com/api/awardee/?...page_number=2",
    "prev": null
  }
}
No links
400	
Bad Request

No links
403	
Invalid API Key

No links
404	
Requested Record Not Found

No links
Awardee Mentor Protege


GET
/api-external/awardee-mp/

Parameters
Try it out
Name	Description
api_key *
string
(query)
API Key for authentication

Default value : your-api-key-here

your-api-key-here
awardee_key_mentor
integer
(query)
HigherGov Awardee Key of the Mentor

Examples: 
Select
awardee_key_mentor
awardee_key_mentor_parent
integer
(query)
HigherGov Awardee Key of the Mentor Parent

Examples: 
Select
awardee_key_mentor_parent
awardee_key_protege
integer
(query)
HigherGov Awardee Key of the Protege

Examples: 
Select
awardee_key_protege
awardee_key_protege_parent
integer
(query)
HigherGov Awardee Key of the Protege parent

Examples: 
Select
awardee_key_protege_parent
page_number
integer
(query)
A page number within the paginated result set.

page_number
page_size
string
(query)
Number of records returned per page (max 100)

Default value : 10

10
Responses
Code	Description	Links
200	
Success

Media type

application/json
Controls Accept header.
Example Value
Schema
{
  "results": [
    {
      "awardee_key_protege": {
        "awardee_key": 0,
        "clean_name": "string",
        "uei": "string",
        "cage_code": "string",
        "path": "string"
      },
      "awardee_key_mentor": {
        "awardee_key": 0,
        "clean_name": "string",
        "uei": "string",
        "cage_code": "string",
        "path": "string"
      },
      "awardee_key_protege_parent": {
        "awardee_key": 0,
        "clean_name": "string",
        "uei": "string",
        "cage_code": "string",
        "path": "string"
      },
      "awardee_key_mentor_parent": {
        "awardee_key": 0,
        "clean_name": "string",
        "uei": "string",
        "cage_code": "string",
        "path": "string"
      },
      "active_flag": true,
      "primary_naics": {
        "naics_code": "string"
      }
    }
  ],
  "meta": {
    "pagination": {
      "page": 1,
      "pages": 999,
      "count": 9999
    }
  },
  "links": {
    "first": "https://www.highergov.com/api/awardeemp/?...page_number=1",
    "last": "https://www.highergov.com/api/awardeemp/?...page_number=999",
    "next": "https://www.highergov.com/api/awardeemp/?...page_number=2",
    "prev": null
  }
}
No links
400	
Bad Request

No links
403	
Invalid API Key

No links
404	
Requested Record Not Found

No links
Awardee Partnership


GET
/api-external/awardee-partnership/

Description: Teaming partnerships between different Awardees.
Update Frequency: Updated Weekly with new subaward data.

Parameters
Try it out
Name	Description
api_key *
string
(query)
API Key for authentication

Default value : your-api-key-here

your-api-key-here
awardee_key_prime
integer
(query)
HigherGov Awardee Key of the prime recipient

Examples: 
Select
awardee_key_prime
awardee_key_prime_parent
integer
(query)
HigherGov Awardee Key of the prime recipient parent

Examples: 
Select
awardee_key_prime_parent
awardee_key_sub
integer
(query)
HigherGov Awardee Key of the subawardee

Examples: 
Select
awardee_key_sub
awardee_key_sub_parent
integer
(query)
HigherGov Awardee Key of the subawardee parent

Examples: 
Select
awardee_key_sub_parent
page_number
integer
(query)
A page number within the paginated result set.

page_number
page_size
string
(query)
Number of records returned per page (max 100)

Default value : 10

10
Responses
Code	Description	Links
200	
Success

Media type

application/json
Controls Accept header.
Example Value
Schema
{
  "results": [
    {
      "awardee_key_prime": {
        "awardee_key": 0,
        "clean_name": "string",
        "uei": "string",
        "cage_code": "string",
        "path": "string"
      },
      "awardee_key_sub": {
        "awardee_key": 0,
        "clean_name": "string",
        "uei": "string",
        "cage_code": "string",
        "path": "string"
      },
      "awardee_key_prime_parent": {
        "awardee_key": 0,
        "clean_name": "string",
        "uei": "string",
        "cage_code": "string",
        "path": "string"
      },
      "awardee_key_sub_parent": {
        "awardee_key": 0,
        "clean_name": "string",
        "uei": "string",
        "cage_code": "string",
        "path": "string"
      },
      "number_of_awards": 0,
      "total_awards": 0,
      "most_recent_date": "2025-08-04",
      "relationship_type": "string"
    }
  ],
  "meta": {
    "pagination": {
      "page": 1,
      "pages": 999,
      "count": 9999
    }
  },
  "links": {
    "first": "https://www.highergov.com/api/awardeepartnership/?...page_number=1",
    "last": "https://www.highergov.com/api/awardeepartnership/?...page_number=999",
    "next": "https://www.highergov.com/api/awardeepartnership/?...page_number=2",
    "prev": null
  }
}
No links
400	
Bad Request

No links
403	
Invalid API Key

No links
404	
Requested Record Not Found

No links
Federal Contract


GET
/api-external/contract/

Description: Federal prime contract awards.
Update Frequency: Daily by 2am (for two days prior) Update Check Field: last_modified_date.

Parameters
Try it out
Name	Description
api_key *
string
(query)
API Key for authentication

Default value : your-api-key-here

your-api-key-here
award_id
string
(query)
The government Award ID

Examples: 
Select
award_id
awardee_key
integer
(query)
HigherGov Awardee Key

Examples: 
Select
awardee_key
awardee_key_parent
integer
(query)
HigherGov Awardee Key (Parent Level)

Examples: 
Select
awardee_key_parent
awardee_uei
string
(query)
Awardee UEI

Examples: 
Select
awardee_uei
awardee_uei_parent
string
(query)
Awardee UEI Parent

Examples: 
Select
awardee_uei_parent
awarding_agency_key
integer
(query)
HigherGov Awarding Agency key

Examples: 
Select
awarding_agency_key
funding_agency_key
integer
(query)
HigherGov Funding Agency key

Examples: 
Select
funding_agency_key
last_modified_date
string($date)
(query)
Last modified date filter (format: YYYY-MM-DD)

Examples: 
Select
last_modified_date
naics_code
string
(query)
Awards NAICS code

Examples: 
Select
naics_code
ordering
string
(query)
Which field to use when ordering the results.

Available values : -action_date, -current_total_value_of_award, -last_modified_date, -period_of_performance_potential_end_date, -potential_total_value_of_award, -total_dollars_obligated, action_date, current_total_value_of_award, last_modified_date, period_of_performance_potential_end_date, potential_total_value_of_award, total_dollars_obligated


--
page_number
integer
(query)
A page number within the paginated result set.

page_number
page_size
string
(query)
Number of records returned per page (max 100)

Default value : 10

10
parent_award_id
string
(query)
The government Award ID of the parent Award

Examples: 
Select
parent_award_id
psc_code
string
(query)
PSC code

Examples: 
Select
psc_code
search_id
string
(query)
HigherGov SearchID

Examples: 
Select
search_id
vehicle_key
integer
(query)
HigherGov Vehicle key

Examples: 
Select
vehicle_key
Responses
Code	Description	Links
200	
Success

Media type

application/json
Controls Accept header.
Example Value
Schema
{
  "results": [
    {
      "award_id": "string",
      "parent_award_id": "string",
      "latest_transaction_key": "string",
      "last_modified_date": "2025-08-04",
      "latest_action_date": "2025-08-04",
      "latest_action_date_fiscal_year": 0,
      "awardee": {
        "awardee_key": 0,
        "clean_name": "string",
        "uei": "string",
        "cage_code": "string",
        "path": "string"
      },
      "awardee_parent": {
        "awardee_key": 0,
        "clean_name": "string",
        "uei": "string",
        "cage_code": "string",
        "path": "string"
      },
      "awarding_agency": {
        "agency_key": 0,
        "agency_name": "string",
        "agency_abbreviation": "string",
        "agency_type": "string",
        "path": "string"
      },
      "funding_agency": {
        "agency_key": 0,
        "agency_name": "string",
        "agency_abbreviation": "string",
        "agency_type": "string",
        "path": "string"
      },
      "vehicle": {
        "vehicle_key": 0,
        "vehicle_name": "string",
        "vehicle_description": "string",
        "path": "string"
      },
      "federal_supply_schedule_award_id": "string",
      "parent_award_type": "string",
      "period_of_performance_start_date": "2025-08-04",
      "period_of_performance_current_end_date": "2025-08-04",
      "period_of_performance_potential_end_date": "2025-08-04",
      "total_dollars_obligated": 0,
      "current_total_value_of_award": 0,
      "potential_total_value_of_award": 0,
      "award_type": "string",
      "award_description_original": "string",
      "alt_description": "string",
      "solicitation_identifier": "string",
      "related_opportunity_title": "string",
      "psc_code": {
        "psc_code": "string",
        "psc_name": "string",
        "psc_description": "string",
        "active": true,
        "path": "string"
      },
      "naics_code": {
        "naics_code": "string",
        "naics_description": "string",
        "active": true,
        "path": "string"
      },
      "primary_place_of_performance_zip": "string",
      "primary_place_of_performance_county_name": "string",
      "primary_place_of_performance_city_name": "string",
      "primary_place_of_performance_state_code": "string",
      "primary_place_of_performance_state_name": "string",
      "primary_place_of_performance_country_name": "string",
      "type_of_agreement": "string",
      "type_of_contract_pricing_description": "string",
      "national_interest_action": "string",
      "defense_program": "string",
      "other_statutory_authority": "string",
      "dod_claimant_program_code": "string",
      "subcontracting_plan": "string",
      "research": "string",
      "type_of_set_aside": "string",
      "number_of_offers_received": "string",
      "extent_competed": "string",
      "solicitation_procedures": "string",
      "evaluated_preference": "string",
      "clinger_cohen_act_planning": "string",
      "fair_opportunity_limited_sources": "string",
      "other_than_full_and_open_competition": "string",
      "created_by": {
        "contact_title": "string",
        "contact_name": "string",
        "contact_first_name": "string",
        "contact_last_name": "string",
        "contact_email": "string",
        "contact_phone": "string"
      },
      "last_modified_by": {
        "contact_title": "string",
        "contact_name": "string",
        "contact_first_name": "string",
        "contact_last_name": "string",
        "contact_email": "string",
        "contact_phone": "string"
      },
      "approved_by": {
        "contact_title": "string",
        "contact_name": "string",
        "contact_first_name": "string",
        "contact_last_name": "string",
        "contact_email": "string",
        "contact_phone": "string"
      },
      "path": "string"
    }
  ],
  "meta": {
    "pagination": {
      "page": 1,
      "pages": 999,
      "count": 9999
    }
  },
  "links": {
    "first": "https://www.highergov.com/api/federal contract/?...page_number=1",
    "last": "https://www.highergov.com/api/federal contract/?...page_number=999",
    "next": "https://www.highergov.com/api/federal contract/?...page_number=2",
    "prev": null
  }
}
No links
400	
Bad Request

No links
403	
Invalid API Key

No links
404	
Requested Record Not Found

No links
Document


GET
/api-external/document/

Description: Returns paths for downloading the documents associated with the opportunity. The related_key is required and is found in the document_path field in the Opportunity endpoint. Update Frequency: Real time.

Parameters
Try it out
Name	Description
api_key *
string
(query)
API Key for authentication

Default value : your-api-key-here

your-api-key-here
ordering
string
(query)
Which field to use when ordering the results.

ordering
page_number
integer
(query)
A page number within the paginated result set.

page_number
page_size
string
(query)
Number of records returned per page (max 100)

Default value : 10

10
related_key *
string
(query)
Document Key

Examples: 
Select
related_key
Responses
Code	Description	Links
200	
Success

Media type

application/json
Controls Accept header.
Example Value
Schema
{
  "results": [
    {
      "file_name": "string",
      "file_type": "string",
      "file_size": 9223372036854776000,
      "posted_date": "2025-08-04T21:39:54.338Z",
      "text_extract": "string",
      "summary": "string",
      "download_url": "string"
    }
  ],
  "meta": {
    "pagination": {
      "page": 1,
      "pages": 999,
      "count": 9999
    }
  },
  "links": {
    "first": "https://www.highergov.com/api/filetracker/?...page_number=1",
    "last": "https://www.highergov.com/api/filetracker/?...page_number=999",
    "next": "https://www.highergov.com/api/filetracker/?...page_number=2",
    "prev": null
  }
}
No links
400	
Bad Request

No links
403	
Invalid API Key

No links
404	
Requested Record Not Found

No links
Federal Grant


GET
/api-external/grant/

Description: Federal prime grant awards.
Update Frequency: Daily by 2am (for two days prior) Update Check Field: last_modified_date.

Parameters
Try it out
Name	Description
api_key *
string
(query)
API Key for authentication

Default value : your-api-key-here

your-api-key-here
awardee_key
integer
(query)
HigherGov Awardee Key

Examples: 
Select
awardee_key
awardee_key_parent
integer
(query)
HigherGov Awardee Key (Parent Level)

Examples: 
Select
awardee_key_parent
awardee_uei
string
(query)
Awardee UEI

Examples: 
Select
awardee_uei
awardee_uei_parent
string
(query)
Awardee UEI Parent

Examples: 
Select
awardee_uei_parent
awarding_agency_key
integer
(query)
HigherGov Awarding Agency key

Examples: 
Select
awarding_agency_key
cfda_program_number
string
(query)
Grant Program Number (CFDA)

Examples: 
Select
cfda_program_number
funding_agency_key
integer
(query)
HigherGov Funding Agency key

Examples: 
Select
funding_agency_key
last_modified_date
string($date)
(query)
Last modified date filter (format: YYYY-MM-DD)

Examples: 
Select
last_modified_date
ordering
string
(query)
Which field to use when ordering the results.

Available values : -action_date, -last_modified_date, -total_obligated_amount, action_date, last_modified_date, total_obligated_amount


--
page_number
integer
(query)
A page number within the paginated result set.

page_number
page_size
string
(query)
Number of records returned per page (max 100)

Default value : 10

10
search_id
string
(query)
HigherGov SearchID

Examples: 
Select
search_id
Responses
Code	Description	Links
200	
Success

Media type

application/json
Controls Accept header.
Example Value
Schema
{
  "results": [
    {
      "award_id": "string",
      "awardee_key": {
        "awardee_key": 0,
        "clean_name": "string",
        "uei": "string",
        "cage_code": "string",
        "path": "string"
      },
      "awardee_key_parent": {
        "awardee_key": 0,
        "clean_name": "string",
        "uei": "string",
        "cage_code": "string",
        "path": "string"
      },
      "assistance_type_code": "string",
      "latest_transaction_key": "string",
      "last_modified_date": "2025-08-04T21:39:54.343Z",
      "latest_action_date": "2025-08-04",
      "latest_action_date_fiscal_year": 0,
      "period_of_performance_start_date": "2025-08-04",
      "period_of_performance_current_end_date": "2025-08-04",
      "total_obligated_amount": 0,
      "federal_action_obligation": 0,
      "non_federal_funding_amount": 0,
      "solicitation_identifier": "string",
      "primary_place_of_performance_zip": "string",
      "primary_place_of_performance_county_name": "string",
      "primary_place_of_performance_city_name": "string",
      "primary_place_of_performance_state_code": "string",
      "primary_place_of_performance_state_name": "string",
      "primary_place_of_performance_country_name": "string",
      "award_description_original": "string",
      "grant_program": {
        "cfda_program_number": "string",
        "active": true,
        "program_title": "string",
        "popular_program_title": "string"
      },
      "awarding_agency": {
        "agency_key": 0,
        "agency_name": "string",
        "agency_abbreviation": "string",
        "agency_type": "string",
        "path": "string"
      },
      "funding_agency": {
        "agency_key": 0,
        "agency_name": "string",
        "agency_abbreviation": "string",
        "agency_type": "string",
        "path": "string"
      },
      "path": "string"
    }
  ],
  "meta": {
    "pagination": {
      "page": 1,
      "pages": 999,
      "count": 9999
    }
  },
  "links": {
    "first": "https://www.highergov.com/api/federal grant/?...page_number=1",
    "last": "https://www.highergov.com/api/federal grant/?...page_number=999",
    "next": "https://www.highergov.com/api/federal grant/?...page_number=2",
    "prev": null
  }
}
No links
400	
Bad Request

No links
403	
Invalid API Key

No links
404	
Requested Record Not Found

No links
Grant Program


GET
/api-external/grant-program/

Description:Government Assistance Programs (Grant Programs or CFDAs).
Update Frequency: Ad hoc as new programs are released, typically monthly.

Parameters
Try it out
Name	Description
agency_key
integer
(query)
HigherGov Agency key

Examples: 
Select
agency_key
api_key *
string
(query)
API Key for authentication

Default value : your-api-key-here

your-api-key-here
cfda_program_number
string
(query)
CFDA Program Number for the grant program

Examples: 
Select
cfda_program_number
page_number
integer
(query)
A page number within the paginated result set.

page_number
page_size
string
(query)
Number of records returned per page (max 100)

Default value : 10

10
Responses
Code	Description	Links
200	
Success

Media type

application/json
Controls Accept header.
Example Value
Schema
{
  "results": [
    {
      "cfda_program_number": "string",
      "active": true,
      "program_title": "string",
      "popular_program_title": "string",
      "primary_agency": {
        "agency_key": 0,
        "agency_name": "string",
        "agency_abbreviation": "string",
        "agency_type": "string",
        "path": "string"
      },
      "date_modified": "2025-08-04",
      "date_posted": "2025-08-04",
      "cfda_objective": "string",
      "type_of_assistance": "string",
      "applicant_eligibility": "string",
      "beneficiary_eligibility": "string",
      "path": "string"
    }
  ],
  "meta": {
    "pagination": {
      "page": 1,
      "pages": 999,
      "count": 9999
    }
  },
  "links": {
    "first": "https://www.highergov.com/api/assistance/?...page_number=1",
    "last": "https://www.highergov.com/api/assistance/?...page_number=999",
    "next": "https://www.highergov.com/api/assistance/?...page_number=2",
    "prev": null
  }
}
No links
400	
Bad Request

No links
403	
Invalid API Key

No links
404	
Requested Record Not Found

No links
Federal IDV


